{
    "fathers": [
        {
            "id": 0,
            "married": true,
            "name": "Kenneth Taylor",
            "sons": "Michelle",
            "daughters": []
        },
        {
            "id": 1,
            "married": true,
            "name": "Robert Miller",
            "sons": null,
            "daughters": [
                {
                    "age": 2,
                    "name": "Melissa"
                },
                {
                    "age": 26,
                    "name": "Carol"
                }
            ]
        },
        {
            "id": 2,
            "married": false,
            "name": "James Martin",
            "sons": null,
            "daughters": []
        },
        {
            "id": 3,
            "married": true,
            "name": "Jason Harris",
            "sons": null,
            "daughters": [
                {
                    "age": 11,
                    "name": "Elizabeth"
                }
            ]
        },
        {
            "id": 4,
            "married": false,
            "name": "Richard Brown",
            "sons": null,
            "daughters": [
                {
                    "age": 22,
                    "name": "Sarah"
                },
                {
                    "age": 29,
                    "name": "Sandra"
                }
            ]
        },
        {
            "id": 5,
            "married": true,
            "name": "Jeffrey Davis",
            "sons": null,
            "daughters": [
                {
                    "age": 17,
                    "name": "Kimberly"
                },
                {
                    "age": 30,
                    "name": "Angela"
                }
            ]
        },
        {
            "id": 6,
            "married": false,
            "name": "Charles Lee",
            "sons": null,
            "daughters": [
                {
                    "age": 14,
                    "name": "Dorothy"
                },
                {
                    "age": 25,
                    "name": "Michelle"
                },
                {
                    "age": 22,
                    "name": "Sandra"
                }
            ]
        }
    ]
}